gtkwave/waveout.vcd
$date
	Tue Jul 01 11:45:38 2025
$end
$version
	Icarus Verilog
$end
$timescale
	1ps
$end
$scope module RISCV_pipeline_tb $end
$scope module dut $end
$var wire 1 ! FlushD $end
$var wire 1 " FlushE $end
$var wire 2 # ForwardAE [1:0] $end
$var wire 2 $ ForwardBE [1:0] $end
$var wire 32 % PCTargetE [31:0] $end
$var wire 1 & StallD $end
$var wire 1 ' StallF $end
$var wire 32 ( alu_src_a [31:0] $end
$var wire 32 ) alu_src_b [31:0] $end
$var wire 1 * clk $end
$var wire 4 + dmem_byte_enabler [3:0] $end
$var wire 2 , hazard_PcSrc [1:0] $end
$var wire 32 - rf_write_data [31:0] $end
$var wire 1 . rst $end
$var wire 5 / rf_write_addr [4:0] $end
$var wire 1 0 rf_we $end
$var wire 32 1 rf_read_data2 [31:0] $end
$var wire 32 2 rf_read_data1 [31:0] $end
$var wire 5 3 rf_read_addr2 [4:0] $end
$var wire 5 4 rf_read_addr1 [4:0] $end
$var wire 2 5 resultsrc [1:0] $end
$var wire 1 6 regwrite $end
$var wire 5 7 rd_d [4:0] $end
$var wire 7 8 op [6:0] $end
$var wire 1 9 memwrite $end
$var wire 1 : jump $end
$var wire 3 ; immsrc [2:0] $end
$var wire 32 < imm_src [31:0] $end
$var wire 32 = imm_extended [31:0] $end
$var wire 1 > hazard_StallF $end
$var wire 1 ? hazard_StallD $end
$var wire 5 @ hazard_Rs2E [4:0] $end
$var wire 5 A hazard_Rs2D [4:0] $end
$var wire 5 B hazard_Rs1E [4:0] $end
$var wire 5 C hazard_Rs1D [4:0] $end
$var wire 2 D hazard_ResultSrcE [1:0] $end
$var wire 1 E hazard_RegWriteW $end
$var wire 1 F hazard_RegWriteM $end
$var wire 5 G hazard_RdW [4:0] $end
$var wire 5 H hazard_RdM [4:0] $end
$var wire 5 I hazard_RdE [4:0] $end
$var wire 2 J hazard_ForwardBE [1:0] $end
$var wire 2 K hazard_ForwardAE [1:0] $end
$var wire 1 L hazard_FlushE $end
$var wire 1 M hazard_FlushD $end
$var wire 1 N funct7b5 $end
$var wire 3 O funct3 [2:0] $end
$var wire 1 P dmem_we $end
$var wire 32 Q dmem_wd [31:0] $end
$var wire 32 R dmem_rd [31:0] $end
$var wire 32 S dmem_addr [31:0] $end
$var wire 1 T branch $end
$var wire 1 U alusrc $end
$var wire 2 V aluop [1:0] $end
$var wire 4 W alucontrol [3:0] $end
$var wire 1 X alu_zero $end
$var wire 1 Y alu_sign $end
$var wire 32 Z alu_result [31:0] $end
$var wire 1 [ alu_overflow $end
$var wire 1 \ alu_carry $end
$var wire 4 ] alu_alucontrol [3:0] $end
$var wire 32 ^ adder_src_b [31:0] $end
$var wire 32 _ adder_src_a [31:0] $end
$var wire 32 ` adder_output [31:0] $end
$var wire 32 a StoreData [31:0] $end
$var wire 32 b SrcB [31:0] $end
$var wire 32 c ResultW [31:0] $end
$var wire 32 d ReadData2_localID [31:0] $end
$var wire 32 e ReadData1_localID [31:0] $end
$var wire 32 f PC_localID [31:0] $end
$var wire 2 g PCSrcE [1:0] $end
$var wire 32 h PCPlus4_localID [31:0] $end
$var wire 32 i PCJalr [31:0] $end
$var wire 32 j LoadData [31:0] $end
$var wire 32 k InstrImem [31:0] $end
$var wire 96 l IF_ID_next [95:0] $end
$var wire 16 m HalfwordFromMem [15:0] $end
$var wire 32 n ForwardedB [31:0] $end
$var wire 32 o ForwardedA [31:0] $end
$var wire 8 p ByteFromMem [7:0] $end
$var wire 4 q ByteEnabler [3:0] $end
$var wire 32 r ALUResult_localEX [31:0] $end
$var reg 179 s EX_MEM [178:0] $end
$var reg 179 t EX_MEM_next [178:0] $end
$var reg 196 u ID_EX [195:0] $end
$var reg 196 v ID_EX_next [195:0] $end
$var reg 96 w IF_ID [95:0] $end
$var reg 168 x MEM_WB [167:0] $end
$var reg 168 y MEM_WB_next [167:0] $end
$var reg 32 z PCCurrent [31:0] $end
$var reg 32 { PCNext [31:0] $end
$var reg 32 | address [31:0] $end
$var reg 32 } write_data [31:0] $end
$var reg 1 ~ write_mem $end
$scope module add_u $end
$var wire 32 !" i_a [31:0] $end
$var wire 32 "" i_b [31:0] $end
$var parameter 32 #" DATA_WIDTH $end
$var reg 32 $" o_sum [31:0] $end
$upscope $end
$scope module alu_decoder_u $end
$var wire 3 %" i_funct3 [2:0] $end
$var wire 1 N i_funct7b5 $end
$var wire 7 &" i_op [6:0] $end
$var wire 2 '" i_ALUOp [1:0] $end
$var parameter 2 (" ALUOP_BRANCH $end
$var parameter 2 )" ALUOP_LD_ST $end
$var parameter 2 *" ALUOP_R_I $end
$var parameter 4 +" ALU_ADD $end
$var parameter 4 ," ALU_AND $end
$var parameter 4 -" ALU_OR $end
$var parameter 4 ." ALU_SLL $end
$var parameter 4 /" ALU_SLT $end
$var parameter 4 0" ALU_SLTU $end
$var parameter 4 1" ALU_SRA $end
$var parameter 4 2" ALU_SRL $end
$var parameter 4 3" ALU_SUB $end
$var parameter 4 4" ALU_XOR $end
$var parameter 3 5" F3_ADD_SUB $end
$var parameter 3 6" F3_AND $end
$var parameter 3 7" F3_OR $end
$var parameter 3 8" F3_SLL $end
$var parameter 3 9" F3_SLT $end
$var parameter 3 :" F3_SLTU $end
$var parameter 3 ;" F3_SR $end
$var parameter 3 <" F3_XOR $end
$var reg 4 =" o_ALUControl [3:0] $end
$upscope $end
$scope module alu_u $end
$var wire 4 >" i_alu_control [3:0] $end
$var wire 32 ?" i_operand_a [31:0] $end
$var wire 32 @" i_operand_b [31:0] $end
$var wire 1 A" is_add_sub $end
$var wire 1 \ o_carry_flag $end
$var wire 1 [ o_overflow_flag $end
$var wire 32 B" sum [31:0] $end
$var wire 5 C" shift_amount [4:0] $end
$var wire 1 X o_zero_flag $end
$var wire 1 Y o_sign_flag $end
$var wire 33 D" extended_sum [32:0] $end
$var wire 32 E" b_operand [31:0] $end
$var parameter 4 F" ALU_ADD $end
$var parameter 4 G" ALU_AND $end
$var parameter 4 H" ALU_OR $end
$var parameter 4 I" ALU_SLL $end
$var parameter 4 J" ALU_SLT $end
$var parameter 4 K" ALU_SLTU $end
$var parameter 4 L" ALU_SRA $end
$var parameter 4 M" ALU_SRL $end
$var parameter 4 N" ALU_SUB $end
$var parameter 4 O" ALU_XOR $end
$var reg 32 P" o_result [31:0] $end
$upscope $end
$scope module data_mem_u $end
$var wire 32 Q" i_addr [31:0] $end
$var wire 4 R" i_byte_en [3:0] $end
$var wire 1 * i_clk $end
$var wire 32 S" i_write_data [31:0] $end
$var wire 1 P i_write_en $end
$var wire 32 T" o_read_data [31:0] $end
$var wire 6 U" word_addr [5:0] $end
$var parameter 32 V" ADDR_WIDTH $end
$var parameter 32 W" MEM_WORDS $end
$scope begin $ivl_for_loop0 $end
$var integer 32 X" i [31:0] $end
$upscope $end
$scope begin $ivl_for_loop1 $end
$var integer 32 Y" i [31:0] $end
$upscope $end
$upscope $end
$scope module decoder_u $end
$var wire 7 Z" i_opcode [6:0] $end
$var parameter 2 [" ALUOP_BRANCH $end
$var parameter 2 \" ALUOP_LD_ST $end
$var parameter 2 ]" ALUOP_R_I $end
$var parameter 3 ^" IMM_B $end
$var parameter 3 _" IMM_I $end
$var parameter 3 `" IMM_J $end
$var parameter 3 a" IMM_S $end
$var parameter 3 b" IMM_U $end
$var parameter 7 c" OP_AUIPC $end
$var parameter 7 d" OP_BRANCH $end
$var parameter 7 e" OP_I_TYPE $end
$var parameter 7 f" OP_JAL $end
$var parameter 7 g" OP_JALR $end
$var parameter 7 h" OP_LOAD $end
$var parameter 7 i" OP_LUI $end
$var parameter 7 j" OP_R_TYPE $end
$var parameter 7 k" OP_STORE $end
$var parameter 2 l" RES_SRC_ALU $end
$var parameter 2 m" RES_SRC_MEM $end
$var parameter 2 n" RES_SRC_PC4 $end
$var reg 2 o" o_ALUOp [1:0] $end
$var reg 1 U o_ALUSrc $end
$var reg 1 T o_Branch $end
$var reg 3 p" o_ImmSrc [2:0] $end
$var reg 1 : o_Jump $end
$var reg 1 9 o_MemWrite $end
$var reg 1 6 o_RegWrite $end
$var reg 2 q" o_ResultSrc [1:0] $end
$upscope $end
$scope module extender_u $end
$var wire 3 r" i_imm_src [2:0] $end
$var wire 32 s" i_instruction [31:0] $end
$var reg 32 t" o_immediate [31:0] $end
$upscope $end
$scope module hazard $end
$var wire 2 u" PcSrc [1:0] $end
$var wire 5 v" RdE [4:0] $end
$var wire 5 w" RdM [4:0] $end
$var wire 5 x" RdW [4:0] $end
$var wire 1 F RegWriteM $end
$var wire 1 E RegWriteW $end
$var wire 2 y" ResultSrcE [1:0] $end
$var wire 5 z" Rs1D [4:0] $end
$var wire 5 {" Rs1E [4:0] $end
$var wire 5 |" Rs2D [4:0] $end
$var wire 5 }" Rs2E [4:0] $end
$var reg 1 M FlushD $end
$var reg 1 L FlushE $end
$var reg 2 ~" ForwardAE [1:0] $end
$var reg 2 !# ForwardBE [1:0] $end
$var reg 1 ? StallD $end
$var reg 1 > StallF $end
$upscope $end
$scope module instruction_mem_u $end
$var wire 32 "# i_addr [31:0] $end
$var wire 32 ## o_instruction [31:0] $end
$var wire 7 $# word_addr [6:0] $end
$var parameter 32 %# ADDR_WIDTH $end
$var parameter 168 &# INIT_FILE $end
$var parameter 32 '# MEM_WORDS $end
$upscope $end
$scope module rf_u $end
$var wire 5 (# i_addr_rd1 [4:0] $end
$var wire 5 )# i_addr_rd2 [4:0] $end
$var wire 5 *# i_addr_wr [4:0] $end
$var wire 1 * i_clk $end
$var wire 32 +# i_data_wr [31:0] $end
$var wire 1 0 i_reg_write $end
$var wire 32 ,# o_data_rd2 [31:0] $end
$var wire 32 -# o_data_rd1 [31:0] $end
$scope begin $unm_blk_44 $end
$var integer 32 .# i [31:0] $end
$upscope $end
$upscope $end
$upscope $end
$upscope $end
$enddefinitions $end
$comment Show the parameter values. $end
$dumpall
b10000000 '#
b10000110110111101100100011001010010111101101001011011100111001101110100011100100111010101100011011101000110100101101111011011100111001100101110011101000111100001110100 &#
b111 %#
b10 n"
b1 m"
b0 l"
b100011 k"
b110011 j"
b110111 i"
b11 h"
b1100111 g"
b1101111 f"
b10011 e"
b1100011 d"
b10111 c"
b100 b"
b1 a"
b11 `"
b0 _"
b10 ^"
b10 ]"
b0 \"
b1 ["
b1000000 W"
b110 V"
b100 O"
b1 N"
b111 M"
b1001 L"
b1000 K"
b101 J"
b110 I"
b11 H"
b10 G"
b0 F"
b100 <"
b101 ;"
b11 :"
b10 9"
b1 8"
b110 7"
b111 6"
b0 5"
b100 4"
b1 3"
b111 2"
b1001 1"
b1000 0"
b101 /"
b110 ."
b11 -"
b10 ,"
b0 +"
b10 *"
b0 )"
b1 ("
b100000 #"
$end
#0
$dumpvars
b100000 .#
b0 -#
b0 ,#
b0 +#
b0 *#
b0 )#
b0 (#
b0 $#
b100000000001010110111 ##
b0 "#
b0 !#
b0 ~"
b0 }"
b0 |"
b0 {"
b0 z"
b0 y"
b0 x"
b0 w"
b0 v"
b0 u"
b11011110101011011011111011101111 t"
b0 s"
bx r"
bx q"
bx p"
bx o"
b0 Z"
b0 Y"
b1000000 X"
b0 U"
b0 T"
b0 S"
bx R"
b0 Q"
b0 P"
b0 E"
b0 D"
b0 C"
b0 B"
1A"
b0 @"
b0 ?"
b0 >"
bx ="
bx '"
b0 &"
b0 %"
b0 $"
b0 ""
b0 !"
x~
bx }
bx |
b100 {
b0 z
b0 y
b0 x
b0 w
b0xx000xxxxx00000000000000000000000000000000000000000000000000000000000000000000000000000000000000000000000000000000000000011011110101011011011111011101111000000000000000000000000000000000000000000 v
b0 u
b0 t
b0 s
b0 r
bx q
b0 p
b0 o
b0 n
b0 m
b1000000000010101101110000000000000000000000000000000000000000000000000000000000000100 l
b100000000001010110111 k
b0 j
b0 i
b0 h
b0 g
b0 f
b0 e
b0 d
b0 c
b0 b
b0 a
b0 `
b0 _
b0 ^
b0 ]
0\
0[
b0 Z
0Y
1X
bx W
bx V
xU
0T
b0 S
b0 R
b0 Q
0P
b0 O
0N
0M
0L
b0 K
b0 J
b0 I
b0 H
b0 G
0F
0E
b0 D
b0 C
b0 B
b0 A
b0 @
0?
0>
b11011110101011011011111011101111 =
b0 <
bx ;
0:
09
b0 8
b0 7
06
bx 5
b0 4
b0 3
b0 2
b0 1
00
b0 /
1.
b0 -
b0 ,
bx +
0*
b0 )
b0 (
0'
0&
b0 %
b0 $
b0 #
0"
0!
$end
#5000
1*
#10000
0*
#15000
1*
#20000
0*
0.
#25000
bx r
x[
b0xxxx C"
xY
bx0 i
bx E"
x\
b100000000000000000000 =
b100000000000000000000 t"
bx0xxxx0x0x0xx0xx0xxxxx0xxx0xxxx )
bx0xxxx0x0x0xx0xx0xxxxx0xxx0xxxx @"
bx0xxxx0x0x0xx0xx0xxxxx0xxx0xxxx b
xX
bx Z
bx P"
bx B"
xA"
bx D"
b11011110101011011011111011101111 %
b11011110101011011011111011101111 `
b11011110101011011011111011101111 $"
b0 W
b0 ="
b10 V
b10 '"
b10 o"
b100 ;
b100 p"
b100 r"
16
b0 5
b0 q"
1U
b1000000000100000000010000000000000000000000000000000000000000000000000000000000000000000000000000000000000000000000000010100000000000100000000000000000000000000000000000000000000000001000110111000 v
b101000000000001100110111 k
b101000000000001100110111 ##
b1 $#
b1000 {
b0xx0xxxxxxxxxxxxxxxxxxxxxxxxxxxxxxxx00000000000000000000000000000000000000000000000000000000000000000000000000000001101111010101101101111101110111111011110101011011011111011101111 t
bx D
bx y"
bx ]
bx >"
b11011110101011011011111011101111 ^
b11011110101011011011111011101111 ""
b1 A
b1 |"
b101 7
b110111 8
b110111 &"
b110111 Z"
b100000000001010110111 <
b100000000001010110111 s"
b1 3
b1 )#
b100 h
b1010000000000011001101110000000000000000000000000000010000000000000000000000000000001000 l
b100 z
b100 "#
b0xx000xxxxx00000000000000000000000000000000000000000000000000000000000000000000000000000000000000000000000000000000000000011011110101011011011111011101111000000000000000000000000000000000000000000 u
b1000000000010101101110000000000000000000000000000000000000000000000000000000000000100 w
1*
#30000
0*
#35000
0[
bx j
0\
bx p
0Y
b100000000000000000000 i
0X
b100000000000000000000 Z
b100000000000000000000 P"
b0 C"
b100000000000000000000 B"
b100000000000000000000 D"
b100000000000000000000 E"
bx R
bx T"
bx U"
bx m
b100000000000000000000 )
b100000000000000000000 @"
b100000000000000000000 b
1A"
b100000000000000000000 %
b100000000000000000000 `
b100000000000000000000 $"
b100000000000000000000 r
b101000000000000000000000 =
b101000000000000000000000 t"
b1000000000100000010100000000000000000000000000000000000000000000000000000000000000000000000000000000000000000000001000011000000000101000000000000000000000000000000000000000000000000010000110111000 v
b0xxxxxxxxxxxxxxxxxxxxxxxxxxxxxxxxxxxxxxxxxxxxxxxxxxxxxxxxxxxxxxxxxx00000000000000000000000000000000000001101111010101101101111101110111111011110101011011011111011101111 y
bx S
bx Q"
b10000000000000010000000000000000000000000000000000000000000000000000001010000000000000000000000000000010001101110000000000000010000000000000000000000000000000100000000000000000000 t
b1 @
b1 }"
b101 I
b101 v"
b0 D
b0 y"
b0 ]
b0 >"
b100000000000000000000 ^
b100000000000000000000 ""
b1010 A
b1010 |"
b110 7
b101000000000001100110111 <
b101000000000001100110111 s"
b1010 3
b1010 )#
b100 f
b1000 h
b10100000000001110010011 k
b10100000000001110010011 ##
b10 $#
b1100 {
b0xx0xxxxxxxxxxxxxxxxxxxxxxxxxxxxxxxx00000000000000000000000000000000000000000000000000000000000000000000000000000001101111010101101101111101110111111011110101011011011111011101111 s
b1000000000100000000010000000000000000000000000000000000000000000000000000000000000000000000000000000000000000000000000010100000000000100000000000000000000000000000000000000000000000001000110111000 u
b1010000000000011001101110000000000000000000000000000010000000000000000000000000000001000 w
b101000000000011100100110000000000000000000000000000100000000000000000000000000000001100 l
b1000 z
b1000 "#
1*
#40000
0*
#45000
b0 j
b0 m
b0 p
b101000000000000000000000 i
b101000000000000000000000 Z
b101000000000000000000000 P"
b101000000000000000000000 B"
b101000000000000000000000 D"
b101000000000000000000000 E"
bx -
bx +#
bx c
b0 R
b0 T"
b0 U"
b101000000000000000000000 )
b101000000000000000000000 @"
b101000000000000000000000 b
b101000000000000000000100 %
b101000000000000000000100 `
b101000000000000000000100 $"
b101000000000000000000000 r
b0 W
b0 ="
b0 ;
b0 p"
b0 r"
b10 V
b10 '"
b10 o"
1U
16
b101 =
b101 t"
b1000000000100000001010000000000000000000000000000000000000000000000000000000000000000000000000000000000000000000010000011100000000000000000000000000000101000000000000000000000000000011000010011000 v
b1000000011100110000001100110011 k
b1000000011100110000001100110011 ##
b11 $#
b10000 {
b100000000000001000000000000000000000000000000000000000000000000000000101000000000000000000000000000001000000000000010000000000000000000000000000000100000000000000000000 y
b101 H
b101 w"
1F
b100000000000000000000 S
b100000000000000000000 Q"
b10000000000010100000000000000000000000000000000000000000000000000000001100000000000000000000000000000100001101110000000000010100000000000000000000000000000101000000000000000000100 t
b1010 @
b1010 }"
b110 I
b110 v"
b100 _
b100 !"
b101000000000000000000000 ^
b101000000000000000000000 ""
b101 A
b101 |"
b111 7
b10011 8
b10011 &"
b10011 Z"
b10100000000001110010011 <
b10100000000001110010011 s"
b101 3
b101 )#
b1000 f
b1100 h
b10000000111001100000011001100110000000000000000000000000000110000000000000000000000000000010000 l
b1100 z
b1100 "#
b0xxxxxxxxxxxxxxxxxxxxxxxxxxxxxxxxxxxxxxxxxxxxxxxxxxxxxxxxxxxxxxxxxx00000000000000000000000000000000000001101111010101101101111101110111111011110101011011011111011101111 x
b10000000000000010000000000000000000000000000000000000000000000000000001010000000000000000000000000000010001101110000000000000010000000000000000000000000000000100000000000000000000 s
b1000000000100000010100000000000000000000000000000000000000000000000000000000000000000000000000000000000000000000001000011000000000101000000000000000000000000000000000000000000000000010000110111000 u
b101000000000011100100110000000000000000000000000000100000000000000000000000000000001100 w
1*
#50000
0*
#55000
b101 r
b100 i
b100000000000000000000 n
b101 Z
b101 P"
b101 B"
b101 D"
b101 E"
b101 C"
b100000000000000000000 -
b100000000000000000000 +#
b100000000000000000000 c
b101 )
b101 @"
b101 b
b1101 %
b1101 `
b1101 $"
b10 $
b10 J
b10 !#
bx ;
bx p"
bx r"
b10 V
b10 '"
b10 o"
0U
16
b1 W
b1 ="
b11011110101011011011111011101111 =
b11011110101011011011111011101111 t"
b1000000001000110001110000000000000000000000000000000000000000000000000000000000000000000000000000000000000000000011000011011011110101011011011111011101111000000000000000000000000000100000110011000 v
b101 G
b101 x"
1E
10
b101 /
b101 *#
b100000000001010000000000000000000000000000000000000000000000000000000110000000000000000000000000000010000000000010100000000000000000000000000000101000000000000000000100 y
b110 H
b110 w"
b101000000000000000000000 S
b101000000000000000000000 Q"
b10000000000000000000000000000000010100000000000000000000000000000000001110000000000000000000000000000110000100110000000000000000000000000000000010100000000000000000000000000001101 t
b101 @
b101 }"
b111 I
b111 v"
b1000 _
b1000 !"
b101 ^
b101 ""
b110 C
b110 z"
b111 A
b111 |"
b110 7
b110011 8
b110011 &"
b110011 Z"
1N
b1000000011100110000001100110011 <
b1000000011100110000001100110011 s"
b110 4
b110 (#
b111 3
b111 )#
b1100 f
b10000 h
b11000110000010000110011 k
b11000110000010000110011 ##
b100 $#
b10100 {
b100000000000001000000000000000000000000000000000000000000000000000000101000000000000000000000000000001000000000000010000000000000000000000000000000100000000000000000000 x
b10000000000010100000000000000000000000000000000000000000000000000000001100000000000000000000000000000100001101110000000000010100000000000000000000000000000101000000000000000000100 s
b1000000000100000001010000000000000000000000000000000000000000000000000000000000000000000000000000000000000000000010000011100000000000000000000000000000101000000000000000000000000000011000010011000 u
b10000000111001100000011001100110000000000000000000000000000110000000000000000000000000000010000 w
b110001100000100001100110000000000000000000000000001000000000000000000000000000000010100 l
b10000 z
b10000 "#
1*
#60000
0*
#65000
b101 a
b100111111111111111111011 r
1\
b101000000000000000000000 e
b101000000000000000000000 d
0Y
b101000000000000000000000 (
b101000000000000000000000 ?"
b101000000000000000000000 o
b101 n
b101 C"
b100111111111111111111010 i
b11111111111111111111111111111010 E"
b101000000000000000000000 -
b101000000000000000000000 +#
b101000000000000000000000 c
b1 U"
bx m
b101 )
b101 @"
b101 b
b100111111111111111111011 Z
b100111111111111111111011 P"
b100111111111111111111011 B"
b100000000100111111111111111111011 D"
b11011110101011011011111011111011 %
b11011110101011011011111011111011 `
b11011110101011011011111011111011 $"
b10 #
b10 K
b10 ~"
b1 $
b1 J
b1 !#
b0 W
b0 ="
b1000000000000110001100000000010100000000000000000000000000000101000000000000000000000000000000000000000000000000100000100011011110101011011011111011101111000000000000000000000000000101000110011000 v
b100000000010010010011 k
b100000000010010010011 ##
b101 $#
b11000 {
b110 G
b110 x"
b110 /
b110 *#
b100000000000000000000000000000001010000000000000000000000000000000000111000000000000000000000000000011000000000000000000000000000000010100000000000000000000000000001101 y
b111 H
b111 w"
b101 S
b101 Q"
b10000000000010011111111111111111101100000000000000000000000000000101001100000000000000000000000000001000001100110001101111010101101101111101110111111011110101011011011111011111011 t
b110 B
b110 {"
b111 @
b111 }"
b110 I
b110 v"
b1 ]
b1 >"
b1100 _
b1100 !"
b11011110101011011011111011101111 ^
b11011110101011011011111011101111 ""
b110 A
b110 |"
b1000 7
0N
b11000110000010000110011 <
b11000110000010000110011 s"
b110 3
b110 )#
b10000 f
b10100 h
b1000000000100100100110000000000000000000000000001010000000000000000000000000000011000 l
b10100 z
b10100 "#
b100000000001010000000000000000000000000000000000000000000000000000000110000000000000000000000000000010000000000010100000000000000000000000000000101000000000000000000100 x
b10000000000000000000000000000000010100000000000000000000000000000000001110000000000000000000000000000110000100110000000000000000000000000000000010100000000000000000000000000001101 s
b1000000001000110001110000000000000000000000000000000000000000000000000000000000000000000000000000000000000000000011000011011011110101011011011111011101111000000000000000000000000000100000110011000 u
b110001100000100001100110000000000000000000000000001000000000000000000000000000000010100 w
1*
#70000
0*
#75000
b1001111111111111111110110 r
b11011 C"
b11111011 a
b1001111111111111111110110 i
0\
b100111111111111111111011 (
b100111111111111111111011 ?"
b100111111111111111111011 o
b100111111111111111111011 )
b100111111111111111111011 @"
b100111111111111111111011 b
b0 d
b100111111111111111111011 n
b100111111111111111111011 E"
b1 =
b1 t"
b0 e
b101 -
b101 +#
b101 c
b111110 U"
b1001111111111111111110110 Z
b1001111111111111111110110 P"
b1001111111111111111110110 B"
b1001111111111111111110110 D"
b11011110101011011011111011111111 %
b11011110101011011011111011111111 `
b11011110101011011011111011111111 $"
b1 $
b1 J
b1 !#
b1 #
b1 K
b1 ~"
b0 W
b0 ="
b0 ;
b0 p"
b0 r"
1U
b10 V
b10 '"
b10 o"
16
b1000000000100000000010000000000000000000000000000000000000000000000000000000000000000000000000000000000000000000101000100100000000000000000000000000000001000000000000000000000000000110000010011000 v
b111 G
b111 x"
b111 /
b111 *#
b100000000001001111111111111111110110000000000000000000000000000000000110000000000000000000000000000100001101111010101101101111101110111111011110101011011011111011111011 y
b110 H
b110 w"
b100111111111111111111011 S
b100111111111111111111011 Q"
b101 Q
b101 S"
b10000000000100111111111111111111011000000000000000000000000011111011010000000000000000000000000000001010001100110001101111010101101101111101110111111011110101011011011111011111111 t
b110 @
b110 }"
b1000 I
b1000 v"
b0 ]
b0 >"
b10000 _
b10000 !"
b0 C
b0 z"
b1 A
b1 |"
b1001 7
b10011 8
b10011 &"
b10011 Z"
b100000000010010010011 <
b100000000010010010011 s"
b0 4
b0 (#
b1 3
b1 )#
b10100 f
b11000 h
b1000000100001001101010010110011 k
b1000000100001001101010010110011 ##
b110 $#
b11100 {
b100000000000000000000000000000001010000000000000000000000000000000000111000000000000000000000000000011000000000000000000000000000000010100000000000000000000000000001101 x
b10000000000010011111111111111111101100000000000000000000000000000101001100000000000000000000000000001000001100110001101111010101101101111101110111111011110101011011011111011111011 s
b1000000000000110001100000000010100000000000000000000000000000101000000000000000000000000000000000000000000000000100000100011011110101011011011111011101111000000000000000000000000000101000110011000 u
b1000000000100100100110000000000000000000000000001010000000000000000000000000000011000 w
b10000001000010011010100101100110000000000000000000000000001100000000000000000000000000000011100 l
b11000 z
b11000 "#
1*
#80000
0*
#85000
b1 r
b0 a
b0 i
b0 (
b0 ?"
b0 o
b0 n
b0 m
b1 Z
b1 P"
b1 B"
b1 D"
b1 E"
b1 C"
b100111111111111111111011 -
b100111111111111111111011 +#
b100111111111111111111011 c
b111101 U"
b1 )
b1 @"
b1 b
b10101 %
b10101 `
b10101 $"
b0 $
b0 J
b0 !#
b0 #
b0 K
b0 ~"
bx ;
bx p"
bx r"
b10 V
b10 '"
b10 o"
0U
16
b1001 W
b1001 ="
b11011110101011011011111011101111 =
b11011110101011011011111011101111 t"
b1000001001001001010000000000000000000000000000000000000000000000000000000000000000000000000000000000000000000000110000100111011110101011011011111011101111000000000000000000000000000111000110011101 v
b101010010100000011 k
b101010010100000011 ##
b111 $#
b100000 {
b110 G
b110 x"
b110 /
b110 *#
b100000000010011111111111111111101100000000000000000000000000000000001000000000000000000000000000000101001101111010101101101111101110111111011110101011011011111011111111 y
b1000 H
b1000 w"
b1001111111111111111110110 S
b1001111111111111111110110 Q"
b11111011 Q
b11111011 S"
b10000000000000000000000000000000000100000000000000000000000000000000010010000000000000000000000000001100000100110000000000000000000000000000000000100000000000000000000000000010101 t
b0 B
b0 {"
b1 @
b1 }"
b1001 I
b1001 v"
b10100 _
b10100 !"
b1 ^
b1 ""
b1001 C
b1001 z"
b1000 A
b1000 |"
b110011 8
b110011 &"
b110011 Z"
b101 O
b101 %"
1N
b1000000100001001101010010110011 <
b1000000100001001101010010110011 s"
b1001 4
b1001 (#
b1000 3
b1000 )#
b11000 f
b11100 h
b1010100101000000110000000000000000000000000001110000000000000000000000000000100000 l
b11100 z
b11100 "#
b100000000001001111111111111111110110000000000000000000000000000000000110000000000000000000000000000100001101111010101101101111101110111111011110101011011011111011111011 x
b10000000000100111111111111111111011000000000000000000000000011111011010000000000000000000000000000001010001100110001101111010101101101111101110111111011110101011011011111011111111 s
b1000000000100000000010000000000000000000000000000000000000000000000000000000000000000000000000000000000000000000101000100100000000000000000000000000000001000000000000000000000000000110000010011000 u
b10000001000010011010100101100110000000000000000000000000001100000000000000000000000000000011100 w
1*
#90000
0*
#95000
b0 r
b1001111111111111111110110 a
b1 (
b1 ?"
b1 o
b1001111111111111111110110 n
bx m
b10110 C"
b11111110110000000000000000001001 E"
b0 =
b0 t"
b100000000000000000000 e
b1001111111111111111110110 -
b1001111111111111111110110 +#
b1001111111111111111110110 c
b0 U"
b1001111111111111111110110 )
b1001111111111111111110110 @"
b1001111111111111111110110 b
1X
b0 Z
b0 P"
b11111110110000000000000000001011 B"
0A"
b11111110110000000000000000001011 D"
b11011110101011011011111100000111 %
b11011110101011011011111100000111 `
b11011110101011011011111100000111 $"
b10 $
b10 J
b10 !#
b1 #
b1 K
b1 ~"
b0 ;
b0 p"
b0 r"
b1 5
b1 q"
1U
b0 V
b0 '"
b0 o"
16
b0 W
b0 ="
b100000000000000000000 2
b100000000000000000000 -#
b1010000000100101000000000000000010000000000000000000000000000000000000000000000000000000000000000000000000000000111000101000000000000000000000000000000000000000000000000000000000001000000000011010 v
b1000 G
b1000 x"
b1000 /
b1000 *#
b100000000000000000000000000000000010000000000000000000000000000000001001000000000000000000000000000110000000000000000000000000000000000100000000000000000000000000010101 y
b1001 H
b1001 w"
b1 S
b1 Q"
b0 Q
b0 S"
b10000000000000000000000000000000000000000001001111111111111111110110010010000000000000000000000000001110001100111011101111010101101101111101110111111011110101011011011111100000111 t
b1001 B
b1001 {"
b1000 @
b1000 }"
b1001 ]
b1001 >"
b11000 _
b11000 !"
b11011110101011011011111011101111 ^
b11011110101011011011111011101111 ""
b101 C
b101 z"
b0 A
b0 |"
b1010 7
b11 8
b11 &"
b11 Z"
b10 O
b10 %"
0N
b101010010100000011 <
b101010010100000011 s"
b101 4
b101 (#
b0 3
b0 )#
b11100 f
b100000 h
b101001010000010110110011 k
b101001010000010110110011 ##
b1000 $#
b100100 {
b100000000010011111111111111111101100000000000000000000000000000000001000000000000000000000000000000101001101111010101101101111101110111111011110101011011011111011111111 x
b10000000000000000000000000000000000100000000000000000000000000000000010010000000000000000000000000001100000100110000000000000000000000000000000000100000000000000000000000000010101 s
b1000001001001001010000000000000000000000000000000000000000000000000000000000000000000000000000000000000000000000110000100111011110101011011011111011101111000000000000000000000000000111000110011101 u
b1010100101000000110000000000000000000000000001110000000000000000000000000000100000 w
b1010010100000101101100110000000000000000000000000010000000000000000000000000000000100100 l
b100000 z
b100000 "#
1*
#100000
0*
